@startuml
actor User

User -> main: Run Program

activate main

main -> mycredentials: Read trend_per_day, max_trend_per_day
activate mycredentials

alt Valid Settings
    main -> pytrends: Initialize TrendReq
    activate pytrends

    main -> pytrends: Get Google Trends
    activate pytrends

    pytrends -> pd: Create DataFrame
    activate pd

    pd -> df: Append Data
    activate df

    df -> df: Save to CSV
    deactivate df

    main --> pytrends: Deactivate TrendReq
    deactivate pytrends

else Invalid Settings
    main -> print: Print Error Message
    activate print
    print --> main: Return Error
    deactivate print
end

deactivate mycredentials
deactivate main
@enduml

@startuml
class mycredentials {
  trend_per_day
  max_trend_per_day
}

class pytrends {
  +Initialize()
  +GetTrends()
}

class pd {
  +CreateDataFrame()
}

class df {
  +AppendData()
  +SaveToCSV()
}

class main {
  -num_trends_to_request
  +main()
}

mycredentials --> main
main --> pytrends
pytrends --> pd
pd --> df
@enduml

