@startuml
actor User

User -> main: Run Program

activate main

main -> mycredentials: Read url_link_per_trend_per_day, max_url_link_per_trend_per_day
activate mycredentials

alt Valid Settings
    main -> pd: Read TrendingTopics.csv
    activate pd

    pd -> df: Extract Data
    activate df

    loop for each trending term
        main -> search: Perform Google Search
        activate search

        search -> query: Get Search Results
        activate query

        loop for each URL
            query -> query: Get Next URL
            query --> main: Return URL

            main -> dfLinks: Append Data
            activate dfLinks

            dfLinks -> dfLinks: Save to Links.csv
            deactivate dfLinks
        end

        query --> search: Deactivate Query
        deactivate query

    end

    main --> pd: Deactivate DataFrame
    deactivate pd

else Invalid Settings
    main -> print: Print Error Message
    activate print
    print --> main: Return Error
    deactivate print
end

deactivate mycredentials
deactivate main
@enduml
